(kicad_sch (version 20211123) (generator eeschema)

  (uuid 03c134b5-8d66-4e91-bdef-44dadd5dc6b9)

  (paper "A5")

  (title_block
    (title "Esquemático - Auto")
    (date "2022-11-06")
    (company "Alesandria Alejo - Cignetti Mateo - Galliano Ignacio")
  )

  (lib_symbols
    (symbol "BOB-12009:BOB-12009" (pin_names (offset 1.016)) (in_bom yes) (on_board yes)
      (property "Reference" "U" (id 0) (at -12.7 11.43 0)
        (effects (font (size 1.27 1.27)) (justify left bottom))
      )
      (property "Value" "BOB-12009" (id 1) (at -12.7 -15.24 0)
        (effects (font (size 1.27 1.27)) (justify left bottom))
      )
      (property "Footprint" "CONV_BOB-12009" (id 2) (at 0 0 0)
        (effects (font (size 1.27 1.27)) (justify left bottom) hide)
      )
      (property "Datasheet" "" (id 3) (at 0 0 0)
        (effects (font (size 1.27 1.27)) (justify left bottom) hide)
      )
      (property "STANDARD" "Manufacturer Recommendations" (id 4) (at 0 0 0)
        (effects (font (size 1.27 1.27)) (justify left bottom) hide)
      )
      (property "PARTREV" "01" (id 5) (at 0 0 0)
        (effects (font (size 1.27 1.27)) (justify left bottom) hide)
      )
      (property "MAXIMUM_PACKAGE_HEIGHT" "N/A" (id 6) (at 0 0 0)
        (effects (font (size 1.27 1.27)) (justify left bottom) hide)
      )
      (property "MANUFACTURER" "SparkFun Electronics" (id 7) (at 0 0 0)
        (effects (font (size 1.27 1.27)) (justify left bottom) hide)
      )
      (property "ki_locked" "" (id 8) (at 0 0 0)
        (effects (font (size 1.27 1.27)))
      )
      (symbol "BOB-12009_0_0"
        (rectangle (start -12.7 -12.7) (end 12.7 10.16)
          (stroke (width 0.254) (type default) (color 0 0 0 0))
          (fill (type background))
        )
        (pin power_in line (at 17.78 -10.16 180) (length 5.08)
          (name "GND" (effects (font (size 1.016 1.016))))
          (number "GND_1" (effects (font (size 1.016 1.016))))
        )
        (pin power_in line (at 17.78 -10.16 180) (length 5.08)
          (name "GND" (effects (font (size 1.016 1.016))))
          (number "GND_2" (effects (font (size 1.016 1.016))))
        )
        (pin bidirectional line (at 17.78 7.62 180) (length 5.08)
          (name "HV" (effects (font (size 1.016 1.016))))
          (number "HV" (effects (font (size 1.016 1.016))))
        )
        (pin bidirectional line (at 17.78 2.54 180) (length 5.08)
          (name "HV1" (effects (font (size 1.016 1.016))))
          (number "HV1" (effects (font (size 1.016 1.016))))
        )
        (pin bidirectional line (at 17.78 0 180) (length 5.08)
          (name "HV2" (effects (font (size 1.016 1.016))))
          (number "HV2" (effects (font (size 1.016 1.016))))
        )
        (pin bidirectional line (at 17.78 -2.54 180) (length 5.08)
          (name "HV3" (effects (font (size 1.016 1.016))))
          (number "HV3" (effects (font (size 1.016 1.016))))
        )
        (pin bidirectional line (at 17.78 -5.08 180) (length 5.08)
          (name "HV4" (effects (font (size 1.016 1.016))))
          (number "HV4" (effects (font (size 1.016 1.016))))
        )
        (pin bidirectional line (at -17.78 7.62 0) (length 5.08)
          (name "LV" (effects (font (size 1.016 1.016))))
          (number "LV" (effects (font (size 1.016 1.016))))
        )
        (pin bidirectional line (at -17.78 2.54 0) (length 5.08)
          (name "LV1" (effects (font (size 1.016 1.016))))
          (number "LV1" (effects (font (size 1.016 1.016))))
        )
        (pin bidirectional line (at -17.78 0 0) (length 5.08)
          (name "LV2" (effects (font (size 1.016 1.016))))
          (number "LV2" (effects (font (size 1.016 1.016))))
        )
        (pin bidirectional line (at -17.78 -2.54 0) (length 5.08)
          (name "LV3" (effects (font (size 1.016 1.016))))
          (number "LV3" (effects (font (size 1.016 1.016))))
        )
        (pin bidirectional line (at -17.78 -5.08 0) (length 5.08)
          (name "LV4" (effects (font (size 1.016 1.016))))
          (number "LV4" (effects (font (size 1.016 1.016))))
        )
      )
    )
    (symbol "Connector:Screw_Terminal_01x02" (pin_names (offset 1.016) hide) (in_bom yes) (on_board yes)
      (property "Reference" "J" (id 0) (at 0 2.54 0)
        (effects (font (size 1.27 1.27)))
      )
      (property "Value" "Screw_Terminal_01x02" (id 1) (at 0 -5.08 0)
        (effects (font (size 1.27 1.27)))
      )
      (property "Footprint" "" (id 2) (at 0 0 0)
        (effects (font (size 1.27 1.27)) hide)
      )
      (property "Datasheet" "~" (id 3) (at 0 0 0)
        (effects (font (size 1.27 1.27)) hide)
      )
      (property "ki_keywords" "screw terminal" (id 4) (at 0 0 0)
        (effects (font (size 1.27 1.27)) hide)
      )
      (property "ki_description" "Generic screw terminal, single row, 01x02, script generated (kicad-library-utils/schlib/autogen/connector/)" (id 5) (at 0 0 0)
        (effects (font (size 1.27 1.27)) hide)
      )
      (property "ki_fp_filters" "TerminalBlock*:*" (id 6) (at 0 0 0)
        (effects (font (size 1.27 1.27)) hide)
      )
      (symbol "Screw_Terminal_01x02_1_1"
        (rectangle (start -1.27 1.27) (end 1.27 -3.81)
          (stroke (width 0.254) (type default) (color 0 0 0 0))
          (fill (type background))
        )
        (circle (center 0 -2.54) (radius 0.635)
          (stroke (width 0.1524) (type default) (color 0 0 0 0))
          (fill (type none))
        )
        (polyline
          (pts
            (xy -0.5334 -2.2098)
            (xy 0.3302 -3.048)
          )
          (stroke (width 0.1524) (type default) (color 0 0 0 0))
          (fill (type none))
        )
        (polyline
          (pts
            (xy -0.5334 0.3302)
            (xy 0.3302 -0.508)
          )
          (stroke (width 0.1524) (type default) (color 0 0 0 0))
          (fill (type none))
        )
        (polyline
          (pts
            (xy -0.3556 -2.032)
            (xy 0.508 -2.8702)
          )
          (stroke (width 0.1524) (type default) (color 0 0 0 0))
          (fill (type none))
        )
        (polyline
          (pts
            (xy -0.3556 0.508)
            (xy 0.508 -0.3302)
          )
          (stroke (width 0.1524) (type default) (color 0 0 0 0))
          (fill (type none))
        )
        (circle (center 0 0) (radius 0.635)
          (stroke (width 0.1524) (type default) (color 0 0 0 0))
          (fill (type none))
        )
        (pin passive line (at -5.08 0 0) (length 3.81)
          (name "Pin_1" (effects (font (size 1.27 1.27))))
          (number "1" (effects (font (size 1.27 1.27))))
        )
        (pin passive line (at -5.08 -2.54 0) (length 3.81)
          (name "Pin_2" (effects (font (size 1.27 1.27))))
          (number "2" (effects (font (size 1.27 1.27))))
        )
      )
    )
    (symbol "Connector_Generic:Conn_01x02" (pin_names (offset 1.016) hide) (in_bom yes) (on_board yes)
      (property "Reference" "J" (id 0) (at 0 2.54 0)
        (effects (font (size 1.27 1.27)))
      )
      (property "Value" "Conn_01x02" (id 1) (at 0 -5.08 0)
        (effects (font (size 1.27 1.27)))
      )
      (property "Footprint" "" (id 2) (at 0 0 0)
        (effects (font (size 1.27 1.27)) hide)
      )
      (property "Datasheet" "~" (id 3) (at 0 0 0)
        (effects (font (size 1.27 1.27)) hide)
      )
      (property "ki_keywords" "connector" (id 4) (at 0 0 0)
        (effects (font (size 1.27 1.27)) hide)
      )
      (property "ki_description" "Generic connector, single row, 01x02, script generated (kicad-library-utils/schlib/autogen/connector/)" (id 5) (at 0 0 0)
        (effects (font (size 1.27 1.27)) hide)
      )
      (property "ki_fp_filters" "Connector*:*_1x??_*" (id 6) (at 0 0 0)
        (effects (font (size 1.27 1.27)) hide)
      )
      (symbol "Conn_01x02_1_1"
        (rectangle (start -1.27 -2.413) (end 0 -2.667)
          (stroke (width 0.1524) (type default) (color 0 0 0 0))
          (fill (type none))
        )
        (rectangle (start -1.27 0.127) (end 0 -0.127)
          (stroke (width 0.1524) (type default) (color 0 0 0 0))
          (fill (type none))
        )
        (rectangle (start -1.27 1.27) (end 1.27 -3.81)
          (stroke (width 0.254) (type default) (color 0 0 0 0))
          (fill (type background))
        )
        (pin passive line (at -5.08 0 0) (length 3.81)
          (name "Pin_1" (effects (font (size 1.27 1.27))))
          (number "1" (effects (font (size 1.27 1.27))))
        )
        (pin passive line (at -5.08 -2.54 0) (length 3.81)
          (name "Pin_2" (effects (font (size 1.27 1.27))))
          (number "2" (effects (font (size 1.27 1.27))))
        )
      )
    )
    (symbol "Connector_Generic:Conn_01x03" (pin_names (offset 1.016) hide) (in_bom yes) (on_board yes)
      (property "Reference" "J" (id 0) (at 0 5.08 0)
        (effects (font (size 1.27 1.27)))
      )
      (property "Value" "Conn_01x03" (id 1) (at 0 -5.08 0)
        (effects (font (size 1.27 1.27)))
      )
      (property "Footprint" "" (id 2) (at 0 0 0)
        (effects (font (size 1.27 1.27)) hide)
      )
      (property "Datasheet" "~" (id 3) (at 0 0 0)
        (effects (font (size 1.27 1.27)) hide)
      )
      (property "ki_keywords" "connector" (id 4) (at 0 0 0)
        (effects (font (size 1.27 1.27)) hide)
      )
      (property "ki_description" "Generic connector, single row, 01x03, script generated (kicad-library-utils/schlib/autogen/connector/)" (id 5) (at 0 0 0)
        (effects (font (size 1.27 1.27)) hide)
      )
      (property "ki_fp_filters" "Connector*:*_1x??_*" (id 6) (at 0 0 0)
        (effects (font (size 1.27 1.27)) hide)
      )
      (symbol "Conn_01x03_1_1"
        (rectangle (start -1.27 -2.413) (end 0 -2.667)
          (stroke (width 0.1524) (type default) (color 0 0 0 0))
          (fill (type none))
        )
        (rectangle (start -1.27 0.127) (end 0 -0.127)
          (stroke (width 0.1524) (type default) (color 0 0 0 0))
          (fill (type none))
        )
        (rectangle (start -1.27 2.667) (end 0 2.413)
          (stroke (width 0.1524) (type default) (color 0 0 0 0))
          (fill (type none))
        )
        (rectangle (start -1.27 3.81) (end 1.27 -3.81)
          (stroke (width 0.254) (type default) (color 0 0 0 0))
          (fill (type background))
        )
        (pin passive line (at -5.08 2.54 0) (length 3.81)
          (name "Pin_1" (effects (font (size 1.27 1.27))))
          (number "1" (effects (font (size 1.27 1.27))))
        )
        (pin passive line (at -5.08 0 0) (length 3.81)
          (name "Pin_2" (effects (font (size 1.27 1.27))))
          (number "2" (effects (font (size 1.27 1.27))))
        )
        (pin passive line (at -5.08 -2.54 0) (length 3.81)
          (name "Pin_3" (effects (font (size 1.27 1.27))))
          (number "3" (effects (font (size 1.27 1.27))))
        )
      )
    )
    (symbol "Connector_Generic:Conn_01x04" (pin_names (offset 1.016) hide) (in_bom yes) (on_board yes)
      (property "Reference" "J" (id 0) (at 0 5.08 0)
        (effects (font (size 1.27 1.27)))
      )
      (property "Value" "Conn_01x04" (id 1) (at 0 -7.62 0)
        (effects (font (size 1.27 1.27)))
      )
      (property "Footprint" "" (id 2) (at 0 0 0)
        (effects (font (size 1.27 1.27)) hide)
      )
      (property "Datasheet" "~" (id 3) (at 0 0 0)
        (effects (font (size 1.27 1.27)) hide)
      )
      (property "ki_keywords" "connector" (id 4) (at 0 0 0)
        (effects (font (size 1.27 1.27)) hide)
      )
      (property "ki_description" "Generic connector, single row, 01x04, script generated (kicad-library-utils/schlib/autogen/connector/)" (id 5) (at 0 0 0)
        (effects (font (size 1.27 1.27)) hide)
      )
      (property "ki_fp_filters" "Connector*:*_1x??_*" (id 6) (at 0 0 0)
        (effects (font (size 1.27 1.27)) hide)
      )
      (symbol "Conn_01x04_1_1"
        (rectangle (start -1.27 -4.953) (end 0 -5.207)
          (stroke (width 0.1524) (type default) (color 0 0 0 0))
          (fill (type none))
        )
        (rectangle (start -1.27 -2.413) (end 0 -2.667)
          (stroke (width 0.1524) (type default) (color 0 0 0 0))
          (fill (type none))
        )
        (rectangle (start -1.27 0.127) (end 0 -0.127)
          (stroke (width 0.1524) (type default) (color 0 0 0 0))
          (fill (type none))
        )
        (rectangle (start -1.27 2.667) (end 0 2.413)
          (stroke (width 0.1524) (type default) (color 0 0 0 0))
          (fill (type none))
        )
        (rectangle (start -1.27 3.81) (end 1.27 -6.35)
          (stroke (width 0.254) (type default) (color 0 0 0 0))
          (fill (type background))
        )
        (pin passive line (at -5.08 2.54 0) (length 3.81)
          (name "Pin_1" (effects (font (size 1.27 1.27))))
          (number "1" (effects (font (size 1.27 1.27))))
        )
        (pin passive line (at -5.08 0 0) (length 3.81)
          (name "Pin_2" (effects (font (size 1.27 1.27))))
          (number "2" (effects (font (size 1.27 1.27))))
        )
        (pin passive line (at -5.08 -2.54 0) (length 3.81)
          (name "Pin_3" (effects (font (size 1.27 1.27))))
          (number "3" (effects (font (size 1.27 1.27))))
        )
        (pin passive line (at -5.08 -5.08 0) (length 3.81)
          (name "Pin_4" (effects (font (size 1.27 1.27))))
          (number "4" (effects (font (size 1.27 1.27))))
        )
      )
    )
    (symbol "Device:C_Polarized" (pin_numbers hide) (pin_names (offset 0.254)) (in_bom yes) (on_board yes)
      (property "Reference" "C" (id 0) (at 0.635 2.54 0)
        (effects (font (size 1.27 1.27)) (justify left))
      )
      (property "Value" "C_Polarized" (id 1) (at 0.635 -2.54 0)
        (effects (font (size 1.27 1.27)) (justify left))
      )
      (property "Footprint" "" (id 2) (at 0.9652 -3.81 0)
        (effects (font (size 1.27 1.27)) hide)
      )
      (property "Datasheet" "~" (id 3) (at 0 0 0)
        (effects (font (size 1.27 1.27)) hide)
      )
      (property "ki_keywords" "cap capacitor" (id 4) (at 0 0 0)
        (effects (font (size 1.27 1.27)) hide)
      )
      (property "ki_description" "Polarized capacitor" (id 5) (at 0 0 0)
        (effects (font (size 1.27 1.27)) hide)
      )
      (property "ki_fp_filters" "CP_*" (id 6) (at 0 0 0)
        (effects (font (size 1.27 1.27)) hide)
      )
      (symbol "C_Polarized_0_1"
        (rectangle (start -2.286 0.508) (end 2.286 1.016)
          (stroke (width 0) (type default) (color 0 0 0 0))
          (fill (type none))
        )
        (polyline
          (pts
            (xy -1.778 2.286)
            (xy -0.762 2.286)
          )
          (stroke (width 0) (type default) (color 0 0 0 0))
          (fill (type none))
        )
        (polyline
          (pts
            (xy -1.27 2.794)
            (xy -1.27 1.778)
          )
          (stroke (width 0) (type default) (color 0 0 0 0))
          (fill (type none))
        )
        (rectangle (start 2.286 -0.508) (end -2.286 -1.016)
          (stroke (width 0) (type default) (color 0 0 0 0))
          (fill (type outline))
        )
      )
      (symbol "C_Polarized_1_1"
        (pin passive line (at 0 3.81 270) (length 2.794)
          (name "~" (effects (font (size 1.27 1.27))))
          (number "1" (effects (font (size 1.27 1.27))))
        )
        (pin passive line (at 0 -3.81 90) (length 2.794)
          (name "~" (effects (font (size 1.27 1.27))))
          (number "2" (effects (font (size 1.27 1.27))))
        )
      )
    )
    (symbol "Device:R" (pin_numbers hide) (pin_names (offset 0)) (in_bom yes) (on_board yes)
      (property "Reference" "R" (id 0) (at 2.032 0 90)
        (effects (font (size 1.27 1.27)))
      )
      (property "Value" "R" (id 1) (at 0 0 90)
        (effects (font (size 1.27 1.27)))
      )
      (property "Footprint" "" (id 2) (at -1.778 0 90)
        (effects (font (size 1.27 1.27)) hide)
      )
      (property "Datasheet" "~" (id 3) (at 0 0 0)
        (effects (font (size 1.27 1.27)) hide)
      )
      (property "ki_keywords" "R res resistor" (id 4) (at 0 0 0)
        (effects (font (size 1.27 1.27)) hide)
      )
      (property "ki_description" "Resistor" (id 5) (at 0 0 0)
        (effects (font (size 1.27 1.27)) hide)
      )
      (property "ki_fp_filters" "R_*" (id 6) (at 0 0 0)
        (effects (font (size 1.27 1.27)) hide)
      )
      (symbol "R_0_1"
        (rectangle (start -1.016 -2.54) (end 1.016 2.54)
          (stroke (width 0.254) (type default) (color 0 0 0 0))
          (fill (type none))
        )
      )
      (symbol "R_1_1"
        (pin passive line (at 0 3.81 270) (length 1.27)
          (name "~" (effects (font (size 1.27 1.27))))
          (number "1" (effects (font (size 1.27 1.27))))
        )
        (pin passive line (at 0 -3.81 90) (length 1.27)
          (name "~" (effects (font (size 1.27 1.27))))
          (number "2" (effects (font (size 1.27 1.27))))
        )
      )
    )
    (symbol "Regulator_Linear:LM317_TO-220" (pin_names (offset 0.254)) (in_bom yes) (on_board yes)
      (property "Reference" "U" (id 0) (at -3.81 3.175 0)
        (effects (font (size 1.27 1.27)))
      )
      (property "Value" "LM317_TO-220" (id 1) (at 0 3.175 0)
        (effects (font (size 1.27 1.27)) (justify left))
      )
      (property "Footprint" "Package_TO_SOT_THT:TO-220-3_Vertical" (id 2) (at 0 6.35 0)
        (effects (font (size 1.27 1.27) italic) hide)
      )
      (property "Datasheet" "http://www.ti.com/lit/ds/symlink/lm317.pdf" (id 3) (at 0 0 0)
        (effects (font (size 1.27 1.27)) hide)
      )
      (property "ki_keywords" "Adjustable Voltage Regulator 1A Positive" (id 4) (at 0 0 0)
        (effects (font (size 1.27 1.27)) hide)
      )
      (property "ki_description" "1.5A 35V Adjustable Linear Regulator, TO-220" (id 5) (at 0 0 0)
        (effects (font (size 1.27 1.27)) hide)
      )
      (property "ki_fp_filters" "TO?220*" (id 6) (at 0 0 0)
        (effects (font (size 1.27 1.27)) hide)
      )
      (symbol "LM317_TO-220_0_1"
        (rectangle (start -5.08 1.905) (end 5.08 -5.08)
          (stroke (width 0.254) (type default) (color 0 0 0 0))
          (fill (type background))
        )
      )
      (symbol "LM317_TO-220_1_1"
        (pin input line (at 0 -7.62 90) (length 2.54)
          (name "ADJ" (effects (font (size 1.27 1.27))))
          (number "1" (effects (font (size 1.27 1.27))))
        )
        (pin power_out line (at 7.62 0 180) (length 2.54)
          (name "VO" (effects (font (size 1.27 1.27))))
          (number "2" (effects (font (size 1.27 1.27))))
        )
        (pin power_in line (at -7.62 0 0) (length 2.54)
          (name "VI" (effects (font (size 1.27 1.27))))
          (number "3" (effects (font (size 1.27 1.27))))
        )
      )
    )
    (symbol "esp32-nodemcu:ESP32-NodeMCU" (in_bom yes) (on_board yes)
      (property "Reference" "U" (id 0) (at -11.43 -27.94 0)
        (effects (font (size 1.27 1.27)))
      )
      (property "Value" "ESP32-NodeMCU" (id 1) (at -4.445 22.86 0)
        (effects (font (size 1.27 1.27)))
      )
      (property "Footprint" "" (id 2) (at -3.81 24.13 0)
        (effects (font (size 1.27 1.27)) hide)
      )
      (property "Datasheet" "" (id 3) (at -3.81 24.13 0)
        (effects (font (size 1.27 1.27)) hide)
      )
      (symbol "ESP32-NodeMCU_0_1"
        (rectangle (start -12.7 21.59) (end 13.97 -26.67)
          (stroke (width 0.2) (type default) (color 0 0 0 0))
          (fill (type background))
        )
      )
      (symbol "ESP32-NodeMCU_1_1"
        (pin power_out line (at -15.24 20.32 0) (length 2.54)
          (name "3V3" (effects (font (size 1.27 1.27))))
          (number "1" (effects (font (size 0.8 0.8))))
        )
        (pin bidirectional line (at -15.24 -2.54 0) (length 2.54)
          (name "GPIO26" (effects (font (size 1.27 1.27))))
          (number "10" (effects (font (size 0.8 0.8))))
        )
        (pin bidirectional line (at -15.24 -5.08 0) (length 2.54)
          (name "GPIO27" (effects (font (size 1.27 1.27))))
          (number "11" (effects (font (size 0.8 0.8))))
        )
        (pin bidirectional line (at -15.24 -7.62 0) (length 2.54)
          (name "GPIO14" (effects (font (size 1.27 1.27))))
          (number "12" (effects (font (size 0.8 0.8))))
        )
        (pin bidirectional line (at -15.24 -10.16 0) (length 2.54)
          (name "GPIO12" (effects (font (size 1.27 1.27))))
          (number "13" (effects (font (size 0.8 0.8))))
        )
        (pin power_out line (at -15.24 -12.7 0) (length 2.54)
          (name "GND" (effects (font (size 1.27 1.27))))
          (number "14" (effects (font (size 0.8 0.8))))
        )
        (pin bidirectional line (at -15.24 -15.24 0) (length 2.54)
          (name "GPIO13" (effects (font (size 1.27 1.27))))
          (number "15" (effects (font (size 0.8 0.8))))
        )
        (pin unspecified non_logic (at -15.24 -17.78 0) (length 2.54)
          (name "SD2" (effects (font (size 1.27 1.27))))
          (number "16" (effects (font (size 0.8 0.8))))
        )
        (pin unspecified non_logic (at -15.24 -20.32 0) (length 2.54)
          (name "SD3" (effects (font (size 1.27 1.27))))
          (number "17" (effects (font (size 0.8 0.8))))
        )
        (pin unspecified non_logic (at -15.24 -22.86 0) (length 2.54)
          (name "CMD" (effects (font (size 1.27 1.27))))
          (number "18" (effects (font (size 0.8 0.8))))
        )
        (pin power_out line (at -15.24 -25.4 0) (length 2.54)
          (name "5V" (effects (font (size 1.27 1.27))))
          (number "19" (effects (font (size 0.8 0.8))))
        )
        (pin input line (at -15.24 17.78 0) (length 2.54)
          (name "EN" (effects (font (size 1.27 1.27))))
          (number "2" (effects (font (size 0.8 0.8))))
        )
        (pin power_out line (at 16.51 20.32 180) (length 2.54)
          (name "GND" (effects (font (size 1.27 1.27))))
          (number "20" (effects (font (size 0.8 0.8))))
        )
        (pin bidirectional line (at 16.51 17.78 180) (length 2.54)
          (name "GPIO23" (effects (font (size 1.27 1.27))))
          (number "21" (effects (font (size 0.8 0.8))))
        )
        (pin bidirectional line (at 16.51 15.24 180) (length 2.54)
          (name "GPIO22" (effects (font (size 1.27 1.27))))
          (number "22" (effects (font (size 0.8 0.8))))
        )
        (pin bidirectional line (at 16.51 12.7 180) (length 2.54)
          (name "GPIO1/TX0" (effects (font (size 1.27 1.27))))
          (number "23" (effects (font (size 0.8 0.8))))
        )
        (pin bidirectional line (at 16.51 10.16 180) (length 2.54)
          (name "GPIO3/RX0" (effects (font (size 1.27 1.27))))
          (number "24" (effects (font (size 0.8 0.8))))
        )
        (pin bidirectional line (at 16.51 7.62 180) (length 2.54)
          (name "GPIO21" (effects (font (size 1.27 1.27))))
          (number "25" (effects (font (size 0.8 0.8))))
        )
        (pin power_out line (at 16.51 5.08 180) (length 2.54)
          (name "GND" (effects (font (size 1.27 1.27))))
          (number "26" (effects (font (size 0.8 0.8))))
        )
        (pin bidirectional line (at 16.51 2.54 180) (length 2.54)
          (name "GPIO19" (effects (font (size 1.27 1.27))))
          (number "27" (effects (font (size 0.8 0.8))))
        )
        (pin bidirectional line (at 16.51 0 180) (length 2.54)
          (name "GPIO18" (effects (font (size 1.27 1.27))))
          (number "28" (effects (font (size 0.8 0.8))))
        )
        (pin bidirectional line (at 16.51 -2.54 180) (length 2.54)
          (name "GPIO5" (effects (font (size 1.27 1.27))))
          (number "29" (effects (font (size 0.8 0.8))))
        )
        (pin bidirectional line (at -15.24 15.24 0) (length 2.54)
          (name "GPIO36" (effects (font (size 1.27 1.27))))
          (number "3" (effects (font (size 0.8 0.8))))
        )
        (pin bidirectional line (at 16.51 -5.08 180) (length 2.54)
          (name "GPIO17/TX2" (effects (font (size 1.27 1.27))))
          (number "30" (effects (font (size 0.8 0.8))))
        )
        (pin bidirectional line (at 16.51 -7.62 180) (length 2.54)
          (name "GPIO16/RX2" (effects (font (size 1.27 1.27))))
          (number "31" (effects (font (size 0.8 0.8))))
        )
        (pin bidirectional line (at 16.51 -10.16 180) (length 2.54)
          (name "GPIO4" (effects (font (size 1.27 1.27))))
          (number "32" (effects (font (size 0.8 0.8))))
        )
        (pin bidirectional line (at 16.51 -12.7 180) (length 2.54)
          (name "GPIO0" (effects (font (size 1.27 1.27))))
          (number "33" (effects (font (size 0.8 0.8))))
        )
        (pin bidirectional line (at 16.51 -15.24 180) (length 2.54)
          (name "GPIO2" (effects (font (size 1.27 1.27))))
          (number "34" (effects (font (size 0.8 0.8))))
        )
        (pin bidirectional line (at 16.51 -17.78 180) (length 2.54)
          (name "GPIO15" (effects (font (size 1.27 1.27))))
          (number "35" (effects (font (size 0.8 0.8))))
        )
        (pin unspecified non_logic (at 16.51 -20.32 180) (length 2.54)
          (name "SD1" (effects (font (size 1.27 1.27))))
          (number "36" (effects (font (size 0.8 0.8))))
        )
        (pin unspecified non_logic (at 16.51 -22.86 180) (length 2.54)
          (name "SD0" (effects (font (size 1.27 1.27))))
          (number "37" (effects (font (size 0.8 0.8))))
        )
        (pin unspecified non_logic (at 16.51 -25.4 180) (length 2.54)
          (name "CLK" (effects (font (size 1.27 1.27))))
          (number "38" (effects (font (size 0.8 0.8))))
        )
        (pin bidirectional line (at -15.24 12.7 0) (length 2.54)
          (name "GPIO39" (effects (font (size 1.27 1.27))))
          (number "4" (effects (font (size 0.8 0.8))))
        )
        (pin bidirectional line (at -15.24 10.16 0) (length 2.54)
          (name "GPIO34" (effects (font (size 1.27 1.27))))
          (number "5" (effects (font (size 0.8 0.8))))
        )
        (pin bidirectional line (at -15.24 7.62 0) (length 2.54)
          (name "GPIO35" (effects (font (size 1.27 1.27))))
          (number "6" (effects (font (size 0.8 0.8))))
        )
        (pin bidirectional line (at -15.24 5.08 0) (length 2.54)
          (name "GPIO32" (effects (font (size 1.27 1.27))))
          (number "7" (effects (font (size 0.8 0.8))))
        )
        (pin bidirectional line (at -15.24 2.54 0) (length 2.54)
          (name "GPIO33" (effects (font (size 1.27 1.27))))
          (number "8" (effects (font (size 0.8 0.8))))
        )
        (pin bidirectional line (at -15.24 0 0) (length 2.54)
          (name "GPIO25" (effects (font (size 1.27 1.27))))
          (number "9" (effects (font (size 0.8 0.8))))
        )
      )
    )
    (symbol "power:GND" (power) (pin_names (offset 0)) (in_bom yes) (on_board yes)
      (property "Reference" "#PWR" (id 0) (at 0 -6.35 0)
        (effects (font (size 1.27 1.27)) hide)
      )
      (property "Value" "GND" (id 1) (at 0 -3.81 0)
        (effects (font (size 1.27 1.27)))
      )
      (property "Footprint" "" (id 2) (at 0 0 0)
        (effects (font (size 1.27 1.27)) hide)
      )
      (property "Datasheet" "" (id 3) (at 0 0 0)
        (effects (font (size 1.27 1.27)) hide)
      )
      (property "ki_keywords" "power-flag" (id 4) (at 0 0 0)
        (effects (font (size 1.27 1.27)) hide)
      )
      (property "ki_description" "Power symbol creates a global label with name \"GND\" , ground" (id 5) (at 0 0 0)
        (effects (font (size 1.27 1.27)) hide)
      )
      (symbol "GND_0_1"
        (polyline
          (pts
            (xy 0 0)
            (xy 0 -1.27)
            (xy 1.27 -1.27)
            (xy 0 -2.54)
            (xy -1.27 -1.27)
            (xy 0 -1.27)
          )
          (stroke (width 0) (type default) (color 0 0 0 0))
          (fill (type none))
        )
      )
      (symbol "GND_1_1"
        (pin power_in line (at 0 0 270) (length 0) hide
          (name "GND" (effects (font (size 1.27 1.27))))
          (number "1" (effects (font (size 1.27 1.27))))
        )
      )
    )
    (symbol "power:VDD" (power) (pin_names (offset 0)) (in_bom yes) (on_board yes)
      (property "Reference" "#PWR" (id 0) (at 0 -3.81 0)
        (effects (font (size 1.27 1.27)) hide)
      )
      (property "Value" "VDD" (id 1) (at 0 3.81 0)
        (effects (font (size 1.27 1.27)))
      )
      (property "Footprint" "" (id 2) (at 0 0 0)
        (effects (font (size 1.27 1.27)) hide)
      )
      (property "Datasheet" "" (id 3) (at 0 0 0)
        (effects (font (size 1.27 1.27)) hide)
      )
      (property "ki_keywords" "power-flag" (id 4) (at 0 0 0)
        (effects (font (size 1.27 1.27)) hide)
      )
      (property "ki_description" "Power symbol creates a global label with name \"VDD\"" (id 5) (at 0 0 0)
        (effects (font (size 1.27 1.27)) hide)
      )
      (symbol "VDD_0_1"
        (polyline
          (pts
            (xy -0.762 1.27)
            (xy 0 2.54)
          )
          (stroke (width 0) (type default) (color 0 0 0 0))
          (fill (type none))
        )
        (polyline
          (pts
            (xy 0 0)
            (xy 0 2.54)
          )
          (stroke (width 0) (type default) (color 0 0 0 0))
          (fill (type none))
        )
        (polyline
          (pts
            (xy 0 2.54)
            (xy 0.762 1.27)
          )
          (stroke (width 0) (type default) (color 0 0 0 0))
          (fill (type none))
        )
      )
      (symbol "VDD_1_1"
        (pin power_in line (at 0 0 90) (length 0) hide
          (name "VDD" (effects (font (size 1.27 1.27))))
          (number "1" (effects (font (size 1.27 1.27))))
        )
      )
    )
  )

  (junction (at 97.79 58.42) (diameter 0) (color 0 0 0 0)
    (uuid 0be2f125-9173-4af8-aefc-664e10757a1e)
  )
  (junction (at 45.72 95.25) (diameter 0) (color 0 0 0 0)
    (uuid 0ea7403f-737d-4ec7-9747-368eb5e59fad)
  )
  (junction (at 86.36 71.12) (diameter 0) (color 0 0 0 0)
    (uuid 2631fb2a-f769-4d57-a170-8a166fe3cf7b)
  )
  (junction (at 96.52 71.12) (diameter 0) (color 0 0 0 0)
    (uuid 4da639a9-1734-4d01-8bae-8690eaac067a)
  )
  (junction (at 68.58 71.12) (diameter 0) (color 0 0 0 0)
    (uuid 6d212715-21c0-4941-aae0-bc7f0dbac699)
  )
  (junction (at 92.71 58.42) (diameter 0) (color 0 0 0 0)
    (uuid 9bf3fe55-62ed-4d0f-870a-1ad2c2e58374)
  )
  (junction (at 77.47 71.12) (diameter 0) (color 0 0 0 0)
    (uuid aa503886-03ab-4c20-aae0-ef59ee608f39)
  )
  (junction (at 59.69 71.12) (diameter 0) (color 0 0 0 0)
    (uuid b1cf1d81-95e7-447d-bebd-c78f78e83dac)
  )
  (junction (at 68.58 95.25) (diameter 0) (color 0 0 0 0)
    (uuid d5aa3c71-998f-4547-8dbe-4e2398d20b5f)
  )
  (junction (at 66.04 39.37) (diameter 0) (color 0 0 0 0)
    (uuid e2bf3cf9-5f3a-4bb5-9dc4-0a1aa55fe095)
  )
  (junction (at 45.72 82.55) (diameter 0) (color 0 0 0 0)
    (uuid e6ae4b9b-02a0-4c5c-9e0a-35bd1f592eb5)
  )
  (junction (at 69.85 26.67) (diameter 0) (color 0 0 0 0)
    (uuid e7540ab7-e514-4fb4-9d38-2cd17efdfc72)
  )
  (junction (at 66.04 58.42) (diameter 0) (color 0 0 0 0)
    (uuid ec466a3b-78b8-4f46-85e8-281062e00018)
  )
  (junction (at 69.85 41.91) (diameter 0) (color 0 0 0 0)
    (uuid f477e600-1b36-44b8-b5c3-18e9640cab54)
  )

  (no_connect (at 19.05 77.47) (uuid 915b7cef-d397-4944-ab4e-3f3f602c43cc))

  (wire (pts (xy 74.93 44.45) (xy 74.93 48.26))
    (stroke (width 0) (type default) (color 0 0 0 0))
    (uuid 06990b1b-3eaa-4ef8-82c5-11cb162e7e40)
  )
  (wire (pts (xy 77.47 85.09) (xy 77.47 81.28))
    (stroke (width 0) (type default) (color 0 0 0 0))
    (uuid 0797ab75-378f-40a8-b6d7-d3c075921f60)
  )
  (wire (pts (xy 139.7 48.26) (xy 139.7 49.53))
    (stroke (width 0) (type default) (color 0 0 0 0))
    (uuid 115dc242-6f54-467c-8ea7-7ba58a7d7c93)
  )
  (wire (pts (xy 86.36 40.64) (xy 102.87 40.64))
    (stroke (width 0) (type default) (color 0 0 0 0))
    (uuid 12a49366-08f4-4966-bad4-390fdd850517)
  )
  (wire (pts (xy 68.58 86.36) (xy 68.58 95.25))
    (stroke (width 0) (type default) (color 0 0 0 0))
    (uuid 16934fc0-880b-429a-a36a-e6808b0ad8ee)
  )
  (wire (pts (xy 134.62 48.26) (xy 139.7 48.26))
    (stroke (width 0) (type default) (color 0 0 0 0))
    (uuid 18326124-54ff-4893-a8fd-b4f4d8109ec9)
  )
  (wire (pts (xy 76.2 31.75) (xy 76.2 45.72))
    (stroke (width 0) (type default) (color 0 0 0 0))
    (uuid 1a439b2b-f478-48a2-b994-a82fdcf1adbc)
  )
  (wire (pts (xy 139.7 39.37) (xy 138.43 39.37))
    (stroke (width 0) (type default) (color 0 0 0 0))
    (uuid 1a9aaef7-5ff1-44f1-86f2-2203ee5f93da)
  )
  (wire (pts (xy 35.56 73.66) (xy 35.56 95.25))
    (stroke (width 0) (type default) (color 0 0 0 0))
    (uuid 1faa61a7-16d8-42a5-8ea8-18f1642d049c)
  )
  (wire (pts (xy 77.47 43.18) (xy 77.47 29.21))
    (stroke (width 0) (type default) (color 0 0 0 0))
    (uuid 2386f777-96a4-4914-ba29-b24fd50cf28a)
  )
  (wire (pts (xy 35.56 73.66) (xy 34.29 73.66))
    (stroke (width 0) (type default) (color 0 0 0 0))
    (uuid 25e9bdf6-fc88-49cf-8825-e1766218ddc8)
  )
  (wire (pts (xy 45.72 78.74) (xy 45.72 82.55))
    (stroke (width 0) (type default) (color 0 0 0 0))
    (uuid 267c24ac-cdf3-4a91-8f39-0327f8aa831c)
  )
  (wire (pts (xy 97.79 74.93) (xy 97.79 58.42))
    (stroke (width 0) (type default) (color 0 0 0 0))
    (uuid 268c2fde-96c8-4fcf-9781-b1190c0928d3)
  )
  (wire (pts (xy 66.04 58.42) (xy 66.04 39.37))
    (stroke (width 0) (type default) (color 0 0 0 0))
    (uuid 2cf50755-3e63-48e2-9722-976b46f4350c)
  )
  (wire (pts (xy 97.79 25.4) (xy 97.79 19.05))
    (stroke (width 0) (type default) (color 0 0 0 0))
    (uuid 2ec2485d-cef6-4dea-9000-b89890715f9c)
  )
  (wire (pts (xy 77.47 87.63) (xy 77.47 95.25))
    (stroke (width 0) (type default) (color 0 0 0 0))
    (uuid 33f851b5-7f3c-429c-a794-88522d8d4cc7)
  )
  (wire (pts (xy 59.69 82.55) (xy 45.72 82.55))
    (stroke (width 0) (type default) (color 0 0 0 0))
    (uuid 3b2cc30a-ee18-4e6d-8822-c3ee2ed7a07c)
  )
  (wire (pts (xy 97.79 58.42) (xy 92.71 58.42))
    (stroke (width 0) (type default) (color 0 0 0 0))
    (uuid 3e0f226a-4381-408a-96ea-4a3009b4827d)
  )
  (wire (pts (xy 45.72 95.25) (xy 45.72 106.68))
    (stroke (width 0) (type default) (color 0 0 0 0))
    (uuid 4145ad19-fa50-44ea-9a05-5122d19c68a6)
  )
  (wire (pts (xy 180.34 77.47) (xy 96.52 77.47))
    (stroke (width 0) (type default) (color 0 0 0 0))
    (uuid 41cf2abd-c19e-4484-bdb4-3cc34cdc4dce)
  )
  (wire (pts (xy 60.96 31.75) (xy 76.2 31.75))
    (stroke (width 0) (type default) (color 0 0 0 0))
    (uuid 4297ed8e-ea76-4988-97b5-cc672522d5a7)
  )
  (wire (pts (xy 76.2 45.72) (xy 102.87 45.72))
    (stroke (width 0) (type default) (color 0 0 0 0))
    (uuid 42e7eeca-a457-490e-97e0-b0ebbb292268)
  )
  (wire (pts (xy 35.56 95.25) (xy 45.72 95.25))
    (stroke (width 0) (type default) (color 0 0 0 0))
    (uuid 4356db43-1346-4544-8068-f0e18f4975f8)
  )
  (wire (pts (xy 69.85 24.13) (xy 69.85 26.67))
    (stroke (width 0) (type default) (color 0 0 0 0))
    (uuid 4cd21996-705c-470d-a298-6034c4c83963)
  )
  (wire (pts (xy 66.04 24.13) (xy 66.04 39.37))
    (stroke (width 0) (type default) (color 0 0 0 0))
    (uuid 4d925364-7377-4739-903d-7b594bb215d0)
  )
  (wire (pts (xy 69.85 41.91) (xy 69.85 26.67))
    (stroke (width 0) (type default) (color 0 0 0 0))
    (uuid 51bdb7ac-e9cf-48f6-ad9e-db4f92989be1)
  )
  (wire (pts (xy 59.69 71.12) (xy 53.34 71.12))
    (stroke (width 0) (type default) (color 0 0 0 0))
    (uuid 51c6e370-7ee4-4785-ac78-81175d84e1fb)
  )
  (wire (pts (xy 138.43 44.45) (xy 138.43 43.18))
    (stroke (width 0) (type default) (color 0 0 0 0))
    (uuid 52290ca9-a2a6-455c-b974-845d5e338bbe)
  )
  (wire (pts (xy 86.36 68.58) (xy 86.36 71.12))
    (stroke (width 0) (type default) (color 0 0 0 0))
    (uuid 5706748d-779a-4475-8199-f2bcb1e547e4)
  )
  (wire (pts (xy 60.96 53.34) (xy 86.36 53.34))
    (stroke (width 0) (type default) (color 0 0 0 0))
    (uuid 59fb6428-6520-4ce0-a440-987334567214)
  )
  (wire (pts (xy 139.7 44.45) (xy 138.43 44.45))
    (stroke (width 0) (type default) (color 0 0 0 0))
    (uuid 5e5d5322-f614-45aa-a89c-46cda85b57f4)
  )
  (wire (pts (xy 96.52 71.12) (xy 102.87 71.12))
    (stroke (width 0) (type default) (color 0 0 0 0))
    (uuid 610597d3-ba30-4411-a4dc-4dfc1d65fb9f)
  )
  (wire (pts (xy 68.58 71.12) (xy 59.69 71.12))
    (stroke (width 0) (type default) (color 0 0 0 0))
    (uuid 63e4b0e1-deaa-4978-9065-cfc7b6d51b63)
  )
  (wire (pts (xy 175.26 49.53) (xy 182.88 49.53))
    (stroke (width 0) (type default) (color 0 0 0 0))
    (uuid 66deb167-bd8b-4c37-a49e-7d11162b48b1)
  )
  (wire (pts (xy 66.04 58.42) (xy 92.71 58.42))
    (stroke (width 0) (type default) (color 0 0 0 0))
    (uuid 6778f0be-23dc-42ce-ba30-45dc40f5b5b9)
  )
  (wire (pts (xy 60.96 41.91) (xy 69.85 41.91))
    (stroke (width 0) (type default) (color 0 0 0 0))
    (uuid 6d219cf1-03b0-433b-804b-3c77df987640)
  )
  (wire (pts (xy 97.79 19.05) (xy 138.43 19.05))
    (stroke (width 0) (type default) (color 0 0 0 0))
    (uuid 72c7c52b-f90c-49f5-a245-547dc2ee8dbc)
  )
  (wire (pts (xy 60.96 46.99) (xy 73.66 46.99))
    (stroke (width 0) (type default) (color 0 0 0 0))
    (uuid 770e050d-c136-4db2-8994-df07d45a6ee6)
  )
  (wire (pts (xy 175.26 39.37) (xy 180.34 39.37))
    (stroke (width 0) (type default) (color 0 0 0 0))
    (uuid 77a560c4-7c12-420f-be4d-e8db02cc1aaa)
  )
  (wire (pts (xy 60.96 55.88) (xy 69.85 55.88))
    (stroke (width 0) (type default) (color 0 0 0 0))
    (uuid 787eb3e3-8f8f-4f09-84b8-2baa0ab72d22)
  )
  (wire (pts (xy 60.96 26.67) (xy 69.85 26.67))
    (stroke (width 0) (type default) (color 0 0 0 0))
    (uuid 7f5b23a4-6efb-4f8e-b754-e09cf69e9b41)
  )
  (wire (pts (xy 45.72 93.98) (xy 45.72 95.25))
    (stroke (width 0) (type default) (color 0 0 0 0))
    (uuid 7f77b71d-e637-41aa-9408-e9178afa23e7)
  )
  (wire (pts (xy 81.28 85.09) (xy 77.47 85.09))
    (stroke (width 0) (type default) (color 0 0 0 0))
    (uuid 822259be-923b-4629-8ee8-6bfec200b2d1)
  )
  (wire (pts (xy 77.47 29.21) (xy 60.96 29.21))
    (stroke (width 0) (type default) (color 0 0 0 0))
    (uuid 8728c7f2-e4f1-4cee-afba-6270ec6a2c4f)
  )
  (wire (pts (xy 74.93 48.26) (xy 102.87 48.26))
    (stroke (width 0) (type default) (color 0 0 0 0))
    (uuid 9034d756-f03f-4adc-9698-043a8866b429)
  )
  (wire (pts (xy 77.47 71.12) (xy 86.36 71.12))
    (stroke (width 0) (type default) (color 0 0 0 0))
    (uuid 92578df0-2efa-45f3-b55f-b6c2c1770887)
  )
  (wire (pts (xy 102.87 43.18) (xy 77.47 43.18))
    (stroke (width 0) (type default) (color 0 0 0 0))
    (uuid 937e3319-2807-43ba-b181-ff028eca284a)
  )
  (wire (pts (xy 138.43 19.05) (xy 138.43 39.37))
    (stroke (width 0) (type default) (color 0 0 0 0))
    (uuid 9de21b5d-9dcd-4315-9eb9-73d0a8d81d26)
  )
  (wire (pts (xy 68.58 71.12) (xy 77.47 71.12))
    (stroke (width 0) (type default) (color 0 0 0 0))
    (uuid a3e012e8-94f7-49f3-9453-7617b083d1e9)
  )
  (wire (pts (xy 59.69 82.55) (xy 59.69 81.28))
    (stroke (width 0) (type default) (color 0 0 0 0))
    (uuid a567bc09-9f61-4145-b5d0-034cde3abbac)
  )
  (wire (pts (xy 176.53 57.15) (xy 176.53 74.93))
    (stroke (width 0) (type default) (color 0 0 0 0))
    (uuid a6c5a175-b98e-469d-a6ff-623d33a116cc)
  )
  (wire (pts (xy 38.1 71.12) (xy 34.29 71.12))
    (stroke (width 0) (type default) (color 0 0 0 0))
    (uuid a9d29859-46e3-45f1-93b0-eb41672c155f)
  )
  (wire (pts (xy 81.28 87.63) (xy 77.47 87.63))
    (stroke (width 0) (type default) (color 0 0 0 0))
    (uuid acec1788-2905-4a76-a89e-e9ed6fc3587e)
  )
  (wire (pts (xy 60.96 24.13) (xy 66.04 24.13))
    (stroke (width 0) (type default) (color 0 0 0 0))
    (uuid b07097d6-f5b3-4c8c-b222-556eac3a4ecc)
  )
  (wire (pts (xy 77.47 71.12) (xy 77.47 73.66))
    (stroke (width 0) (type default) (color 0 0 0 0))
    (uuid b758f850-aeec-4038-8cc6-2635e62ab892)
  )
  (wire (pts (xy 60.96 44.45) (xy 74.93 44.45))
    (stroke (width 0) (type default) (color 0 0 0 0))
    (uuid c014a31d-19ab-49ed-a2ab-cf705338972e)
  )
  (wire (pts (xy 68.58 95.25) (xy 77.47 95.25))
    (stroke (width 0) (type default) (color 0 0 0 0))
    (uuid c045ef41-7622-4890-b092-85dad8ac127d)
  )
  (wire (pts (xy 102.87 25.4) (xy 97.79 25.4))
    (stroke (width 0) (type default) (color 0 0 0 0))
    (uuid c4a01358-4fc0-429f-8e5b-cca683e3c6a8)
  )
  (wire (pts (xy 138.43 43.18) (xy 134.62 43.18))
    (stroke (width 0) (type default) (color 0 0 0 0))
    (uuid c8221ae0-55b4-4bcc-85d5-71315156c688)
  )
  (wire (pts (xy 176.53 57.15) (xy 175.26 57.15))
    (stroke (width 0) (type default) (color 0 0 0 0))
    (uuid cac46292-acec-4c63-8f64-e8a63ba39033)
  )
  (wire (pts (xy 86.36 53.34) (xy 86.36 40.64))
    (stroke (width 0) (type default) (color 0 0 0 0))
    (uuid cc31f404-1b38-4821-86b8-5197859591d3)
  )
  (wire (pts (xy 176.53 74.93) (xy 97.79 74.93))
    (stroke (width 0) (type default) (color 0 0 0 0))
    (uuid cf3e6199-ee13-4c06-85a1-06eb92862697)
  )
  (wire (pts (xy 73.66 50.8) (xy 102.87 50.8))
    (stroke (width 0) (type default) (color 0 0 0 0))
    (uuid d31b8c6f-af34-4242-999c-2b99921b7d9d)
  )
  (wire (pts (xy 102.87 58.42) (xy 97.79 58.42))
    (stroke (width 0) (type default) (color 0 0 0 0))
    (uuid d6462096-ddb4-4d81-9b52-456fdbd8285d)
  )
  (wire (pts (xy 68.58 71.12) (xy 68.58 78.74))
    (stroke (width 0) (type default) (color 0 0 0 0))
    (uuid da1f2c6f-8d2b-4fbe-8a02-06ec3745dd8d)
  )
  (wire (pts (xy 92.71 58.42) (xy 92.71 59.69))
    (stroke (width 0) (type default) (color 0 0 0 0))
    (uuid da6cb8a1-54cc-45d6-8bcd-8052b85003b0)
  )
  (wire (pts (xy 59.69 73.66) (xy 59.69 71.12))
    (stroke (width 0) (type default) (color 0 0 0 0))
    (uuid da89d0bf-2746-4b98-bc6c-238e4a1f47d9)
  )
  (wire (pts (xy 134.62 45.72) (xy 140.97 45.72))
    (stroke (width 0) (type default) (color 0 0 0 0))
    (uuid db5766ad-d08c-4962-bf42-42e0a2ef3e94)
  )
  (wire (pts (xy 86.36 71.12) (xy 96.52 71.12))
    (stroke (width 0) (type default) (color 0 0 0 0))
    (uuid dc9aea16-60c9-4517-afe0-726da234ebae)
  )
  (wire (pts (xy 140.97 46.99) (xy 139.7 46.99))
    (stroke (width 0) (type default) (color 0 0 0 0))
    (uuid e4431502-0e83-49af-822b-23086c4c23f3)
  )
  (wire (pts (xy 140.97 45.72) (xy 140.97 46.99))
    (stroke (width 0) (type default) (color 0 0 0 0))
    (uuid e60aea7d-58aa-4fdb-a39c-3814ef824a06)
  )
  (wire (pts (xy 60.96 58.42) (xy 66.04 58.42))
    (stroke (width 0) (type default) (color 0 0 0 0))
    (uuid e6266dac-981e-40e0-b93c-a772b2e3d2a4)
  )
  (wire (pts (xy 175.26 46.99) (xy 182.88 46.99))
    (stroke (width 0) (type default) (color 0 0 0 0))
    (uuid ef38f665-1fd3-4a73-b5ae-a9bbd3c80e39)
  )
  (wire (pts (xy 68.58 95.25) (xy 45.72 95.25))
    (stroke (width 0) (type default) (color 0 0 0 0))
    (uuid f08e634d-995c-42bf-863d-8ce4bea29fab)
  )
  (wire (pts (xy 180.34 39.37) (xy 180.34 77.47))
    (stroke (width 0) (type default) (color 0 0 0 0))
    (uuid f1902ced-79c4-4d48-adb8-00b5b3e38386)
  )
  (wire (pts (xy 175.26 44.45) (xy 182.88 44.45))
    (stroke (width 0) (type default) (color 0 0 0 0))
    (uuid f3ee996f-f2ba-4f8a-b226-8fd47f96191a)
  )
  (wire (pts (xy 73.66 46.99) (xy 73.66 50.8))
    (stroke (width 0) (type default) (color 0 0 0 0))
    (uuid f5c569b7-2017-41eb-9a76-a991f25d9327)
  )
  (wire (pts (xy 60.96 39.37) (xy 66.04 39.37))
    (stroke (width 0) (type default) (color 0 0 0 0))
    (uuid f923d19c-e3d2-478d-92c6-91b95a6a3808)
  )
  (wire (pts (xy 96.52 77.47) (xy 96.52 71.12))
    (stroke (width 0) (type default) (color 0 0 0 0))
    (uuid fabf9d75-6fc4-4d59-9dcc-288967cdef47)
  )
  (wire (pts (xy 45.72 82.55) (xy 45.72 86.36))
    (stroke (width 0) (type default) (color 0 0 0 0))
    (uuid fe61265d-4207-4513-bf80-d47900757a0b)
  )
  (wire (pts (xy 69.85 55.88) (xy 69.85 41.91))
    (stroke (width 0) (type default) (color 0 0 0 0))
    (uuid feb8d3e4-d52e-40fb-80e0-022c08f7b46f)
  )

  (symbol (lib_id "Connector_Generic:Conn_01x03") (at 187.96 46.99 0) (unit 1)
    (in_bom yes) (on_board yes)
    (uuid 05758b46-4014-4f01-9086-3eeef509eefc)
    (property "Reference" "J5" (id 0) (at 186.69 41.91 0)
      (effects (font (size 1.27 1.27)) (justify left))
    )
    (property "Value" "H-Bridge Control" (id 1) (at 190.5 53.34 90)
      (effects (font (size 1.27 1.27)) (justify left))
    )
    (property "Footprint" "Connector_PinSocket_2.54mm:PinSocket_1x03_P2.54mm_Vertical" (id 2) (at 187.96 46.99 0)
      (effects (font (size 1.27 1.27)) hide)
    )
    (property "Datasheet" "~" (id 3) (at 187.96 46.99 0)
      (effects (font (size 1.27 1.27)) hide)
    )
    (pin "1" (uuid ff4a5eab-4653-46ed-96b5-2c4f89badb41))
    (pin "2" (uuid 6d2269f0-fbf1-4285-8e41-f35e7a29ee8f))
    (pin "3" (uuid 518e49e1-2147-41d3-ae5d-31d17865dbb9))
  )

  (symbol (lib_id "Connector_Generic:Conn_01x03") (at 55.88 55.88 180) (unit 1)
    (in_bom yes) (on_board yes)
    (uuid 07ba2bcd-0c52-4c75-a7ea-785c10af07a9)
    (property "Reference" "J4" (id 0) (at 52.07 57.15 0))
    (property "Value" "Servomotor" (id 1) (at 48.26 54.61 0))
    (property "Footprint" "Connector_PinSocket_2.54mm:PinSocket_1x03_P2.54mm_Vertical" (id 2) (at 55.88 55.88 0)
      (effects (font (size 1.27 1.27)) hide)
    )
    (property "Datasheet" "~" (id 3) (at 55.88 55.88 0)
      (effects (font (size 1.27 1.27)) hide)
    )
    (pin "1" (uuid 8992e077-0601-428f-bb91-4c88a8cd4ea6))
    (pin "2" (uuid 9e491d65-82ef-4995-8b18-e2bffece1f7f))
    (pin "3" (uuid c25d3887-fcc8-4792-90f8-0de24f230a68))
  )

  (symbol (lib_id "power:VDD") (at 86.36 68.58 0) (unit 1)
    (in_bom yes) (on_board yes) (fields_autoplaced)
    (uuid 16497b9e-5e3d-497c-9d9f-388019d9fc95)
    (property "Reference" "#PWR03" (id 0) (at 86.36 72.39 0)
      (effects (font (size 1.27 1.27)) hide)
    )
    (property "Value" "VDD" (id 1) (at 86.36 63.5 0))
    (property "Footprint" "" (id 2) (at 86.36 68.58 0)
      (effects (font (size 1.27 1.27)) hide)
    )
    (property "Datasheet" "" (id 3) (at 86.36 68.58 0)
      (effects (font (size 1.27 1.27)) hide)
    )
    (pin "1" (uuid e408197b-acb7-4bc1-8ebd-b1980f1af757))
  )

  (symbol (lib_id "Connector:Screw_Terminal_01x02") (at 29.21 71.12 0) (mirror y) (unit 1)
    (in_bom yes) (on_board yes) (fields_autoplaced)
    (uuid 5583bdaf-387f-4b47-a8b9-c2b11309fa0d)
    (property "Reference" "J1" (id 0) (at 26.67 71.1199 0)
      (effects (font (size 1.27 1.27)) (justify left))
    )
    (property "Value" "Input Voltage" (id 1) (at 26.67 73.6599 0)
      (effects (font (size 1.27 1.27)) (justify left))
    )
    (property "Footprint" "TerminalBlock:TerminalBlock_Altech_AK300-2_P5.00mm" (id 2) (at 29.21 71.12 0)
      (effects (font (size 1.27 1.27)) hide)
    )
    (property "Datasheet" "~" (id 3) (at 29.21 71.12 0)
      (effects (font (size 1.27 1.27)) hide)
    )
    (pin "1" (uuid fd64d09f-037c-47a7-adc5-b422f6020f67))
    (pin "2" (uuid 1799b3dd-22da-4af9-85af-9c3b5875a824))
  )

  (symbol (lib_id "Device:R") (at 45.72 90.17 0) (mirror x) (unit 1)
    (in_bom yes) (on_board yes) (fields_autoplaced)
    (uuid 59fb5153-efd1-4fbe-9b6e-2e0b01c858ad)
    (property "Reference" "R1" (id 0) (at 43.18 88.8999 0)
      (effects (font (size 1.27 1.27)) (justify right))
    )
    (property "Value" "3k9" (id 1) (at 43.18 91.4399 0)
      (effects (font (size 1.27 1.27)) (justify right))
    )
    (property "Footprint" "Resistor_THT:R_Axial_DIN0207_L6.3mm_D2.5mm_P7.62mm_Horizontal" (id 2) (at 43.942 90.17 90)
      (effects (font (size 1.27 1.27)) hide)
    )
    (property "Datasheet" "~" (id 3) (at 45.72 90.17 0)
      (effects (font (size 1.27 1.27)) hide)
    )
    (pin "1" (uuid 859604b2-91f2-43f3-a133-5e548329e14f))
    (pin "2" (uuid 312aead5-f434-4088-add3-9c6b7af21b15))
  )

  (symbol (lib_id "Connector_Generic:Conn_01x04") (at 55.88 29.21 180) (unit 1)
    (in_bom yes) (on_board yes)
    (uuid 6152e45a-0c4a-4712-9ce4-df5f4aea2ec0)
    (property "Reference" "J2" (id 0) (at 52.07 30.48 0))
    (property "Value" "Front Ultrasonic Sensor" (id 1) (at 40.64 26.67 0))
    (property "Footprint" "Connector_PinSocket_2.54mm:PinSocket_1x04_P2.54mm_Vertical" (id 2) (at 55.88 29.21 0)
      (effects (font (size 1.27 1.27)) hide)
    )
    (property "Datasheet" "~" (id 3) (at 55.88 29.21 0)
      (effects (font (size 1.27 1.27)) hide)
    )
    (pin "1" (uuid be691085-b586-417c-83f8-36f6282d23bb))
    (pin "2" (uuid 607170af-1b05-43f5-bb4d-e87eddd818d9))
    (pin "3" (uuid 508dcbe2-2fa5-4c1f-9956-bcaf7c388d5e))
    (pin "4" (uuid 35ef6ba5-ffd6-45c8-a9e4-7850e3513df3))
  )

  (symbol (lib_id "BOB-12009:BOB-12009") (at 157.48 46.99 0) (unit 1)
    (in_bom yes) (on_board yes) (fields_autoplaced)
    (uuid 747fda74-39e5-4c78-bdc6-8343f3868973)
    (property "Reference" "U3" (id 0) (at 157.48 31.75 0))
    (property "Value" "Logic Converter" (id 1) (at 157.48 34.29 0))
    (property "Footprint" "CONV_BOB-12009" (id 2) (at 157.48 46.99 0)
      (effects (font (size 1.27 1.27)) (justify left bottom) hide)
    )
    (property "Datasheet" "" (id 3) (at 157.48 46.99 0)
      (effects (font (size 1.27 1.27)) (justify left bottom) hide)
    )
    (property "STANDARD" "Manufacturer Recommendations" (id 4) (at 157.48 46.99 0)
      (effects (font (size 1.27 1.27)) (justify left bottom) hide)
    )
    (property "PARTREV" "01" (id 5) (at 157.48 46.99 0)
      (effects (font (size 1.27 1.27)) (justify left bottom) hide)
    )
    (property "MAXIMUM_PACKAGE_HEIGHT" "N/A" (id 6) (at 157.48 46.99 0)
      (effects (font (size 1.27 1.27)) (justify left bottom) hide)
    )
    (property "MANUFACTURER" "SparkFun Electronics" (id 7) (at 157.48 46.99 0)
      (effects (font (size 1.27 1.27)) (justify left bottom) hide)
    )
    (pin "GND_1" (uuid a03b9728-1480-42ac-8f60-ca5a6e94daf5))
    (pin "GND_2" (uuid ef3e3a98-0cd4-4969-8c22-e9ed4b432bb2))
    (pin "HV" (uuid 2c975ad4-537b-44a6-bbc3-8066fc84c60d))
    (pin "HV1" (uuid 7b3c964b-65cb-4aa5-b1a0-ca7146904bb4))
    (pin "HV2" (uuid a8a3e18a-07b4-4105-897b-71819172d07d))
    (pin "HV3" (uuid ce2b7a61-0541-4737-848d-98b4df85c82f))
    (pin "HV4" (uuid eaf05e41-0e4e-443e-9698-f48c15b9327e))
    (pin "LV" (uuid cdcde336-6d5e-4fba-965d-771296cacf0c))
    (pin "LV1" (uuid 7da55cbf-7420-457a-8932-57672fe40d57))
    (pin "LV2" (uuid 9f0ec769-5fce-4e8a-a559-229436aea2d4))
    (pin "LV3" (uuid defc5973-0e8f-4810-b8f7-f1f02ed9a11d))
    (pin "LV4" (uuid 83e8a503-6747-4d34-938a-a3e6988eb6be))
  )

  (symbol (lib_id "power:VDD") (at 69.85 24.13 0) (unit 1)
    (in_bom yes) (on_board yes) (fields_autoplaced)
    (uuid 7b5d46a6-0a22-4765-9e51-247200bee96a)
    (property "Reference" "#PWR02" (id 0) (at 69.85 27.94 0)
      (effects (font (size 1.27 1.27)) hide)
    )
    (property "Value" "VDD" (id 1) (at 69.85 19.05 0))
    (property "Footprint" "" (id 2) (at 69.85 24.13 0)
      (effects (font (size 1.27 1.27)) hide)
    )
    (property "Datasheet" "" (id 3) (at 69.85 24.13 0)
      (effects (font (size 1.27 1.27)) hide)
    )
    (pin "1" (uuid 597a9092-5ebd-4ee1-bfd1-86f717a70a41))
  )

  (symbol (lib_id "power:GND") (at 92.71 59.69 0) (unit 1)
    (in_bom yes) (on_board yes) (fields_autoplaced)
    (uuid 9865484c-f31b-4dd0-8090-4c912fbc8ec4)
    (property "Reference" "#PWR04" (id 0) (at 92.71 66.04 0)
      (effects (font (size 1.27 1.27)) hide)
    )
    (property "Value" "GND" (id 1) (at 92.71 64.77 0))
    (property "Footprint" "" (id 2) (at 92.71 59.69 0)
      (effects (font (size 1.27 1.27)) hide)
    )
    (property "Datasheet" "" (id 3) (at 92.71 59.69 0)
      (effects (font (size 1.27 1.27)) hide)
    )
    (pin "1" (uuid 08f801dd-6cf9-47d6-872e-d58a15e6b471))
  )

  (symbol (lib_id "Device:R") (at 59.69 77.47 0) (mirror y) (unit 1)
    (in_bom yes) (on_board yes) (fields_autoplaced)
    (uuid a405bc43-9a7a-4e19-b75c-74eaf906407d)
    (property "Reference" "R2" (id 0) (at 62.23 76.1999 0)
      (effects (font (size 1.27 1.27)) (justify right))
    )
    (property "Value" "2k7" (id 1) (at 62.23 78.7399 0)
      (effects (font (size 1.27 1.27)) (justify right))
    )
    (property "Footprint" "Resistor_THT:R_Axial_DIN0207_L6.3mm_D2.5mm_P7.62mm_Horizontal" (id 2) (at 61.468 77.47 90)
      (effects (font (size 1.27 1.27)) hide)
    )
    (property "Datasheet" "~" (id 3) (at 59.69 77.47 0)
      (effects (font (size 1.27 1.27)) hide)
    )
    (pin "1" (uuid 78180585-5550-4af9-935f-f1c9f56d6c95))
    (pin "2" (uuid 8518de5c-e962-4213-8bbc-090b1e623336))
  )

  (symbol (lib_id "Connector_Generic:Conn_01x04") (at 55.88 44.45 180) (unit 1)
    (in_bom yes) (on_board yes)
    (uuid b13ac196-1051-46d9-9b4e-4578dfee2e83)
    (property "Reference" "J3" (id 0) (at 52.07 45.72 0))
    (property "Value" "Rear Ultrasonic Sensor" (id 1) (at 41.91 41.91 0))
    (property "Footprint" "Connector_PinSocket_2.54mm:PinSocket_1x04_P2.54mm_Vertical" (id 2) (at 55.88 44.45 0)
      (effects (font (size 1.27 1.27)) hide)
    )
    (property "Datasheet" "~" (id 3) (at 55.88 44.45 0)
      (effects (font (size 1.27 1.27)) hide)
    )
    (pin "1" (uuid d92ca5e3-9e6f-49c8-8487-a9494f44e1d4))
    (pin "2" (uuid 5e642f75-92e6-4345-bd56-59953b9094d6))
    (pin "3" (uuid 7976fce1-787b-426d-843b-73e20e7a7a88))
    (pin "4" (uuid 88f7f9ad-f3d3-4177-a4fd-ae6b9ea78211))
  )

  (symbol (lib_id "Device:C_Polarized") (at 68.58 82.55 0) (mirror y) (unit 1)
    (in_bom yes) (on_board yes) (fields_autoplaced)
    (uuid cad53f5c-26f1-4884-8ad8-5b811ff38956)
    (property "Reference" "C1" (id 0) (at 64.77 80.3909 0)
      (effects (font (size 1.27 1.27)) (justify left))
    )
    (property "Value" "1uF" (id 1) (at 64.77 82.9309 0)
      (effects (font (size 1.27 1.27)) (justify left))
    )
    (property "Footprint" "Capacitor_THT:CP_Radial_D5.0mm_P2.50mm" (id 2) (at 67.6148 86.36 0)
      (effects (font (size 1.27 1.27)) hide)
    )
    (property "Datasheet" "~" (id 3) (at 68.58 82.55 0)
      (effects (font (size 1.27 1.27)) hide)
    )
    (pin "1" (uuid 472403e1-bb30-44af-ae23-04dce1c356b7))
    (pin "2" (uuid 6251092a-4573-4968-9bd2-af6ced439442))
  )

  (symbol (lib_id "power:GND") (at 45.72 106.68 0) (unit 1)
    (in_bom yes) (on_board yes) (fields_autoplaced)
    (uuid cb3cec83-1131-442a-94b6-80f57c516663)
    (property "Reference" "#PWR01" (id 0) (at 45.72 113.03 0)
      (effects (font (size 1.27 1.27)) hide)
    )
    (property "Value" "GND" (id 1) (at 45.72 111.76 0))
    (property "Footprint" "" (id 2) (at 45.72 106.68 0)
      (effects (font (size 1.27 1.27)) hide)
    )
    (property "Datasheet" "" (id 3) (at 45.72 106.68 0)
      (effects (font (size 1.27 1.27)) hide)
    )
    (pin "1" (uuid d5d842a5-c589-46ed-b109-3efcf5c40504))
  )

  (symbol (lib_id "esp32-nodemcu:ESP32-NodeMCU") (at 118.11 45.72 0) (unit 1)
    (in_bom yes) (on_board yes) (fields_autoplaced)
    (uuid e9bc947d-86fe-43e2-8b93-71946e6954e7)
    (property "Reference" "U2" (id 0) (at 118.745 19.05 0))
    (property "Value" "ESP32-NodeMCU" (id 1) (at 118.745 21.59 0))
    (property "Footprint" "ESP32_NODEMCU:esp32-nodemcu" (id 2) (at 114.3 21.59 0)
      (effects (font (size 1.27 1.27)) hide)
    )
    (property "Datasheet" "" (id 3) (at 114.3 21.59 0)
      (effects (font (size 1.27 1.27)) hide)
    )
    (pin "1" (uuid 5fc57c0c-f3a4-4f94-949c-e3c87dbab4e3))
    (pin "10" (uuid e9cc065d-21da-4122-b39b-24f8f05ee6c0))
    (pin "11" (uuid 6a5da288-0018-4a4a-8a1c-aba83913b3f3))
    (pin "12" (uuid d436ee07-50e9-45ba-8b12-3d603062d85d))
    (pin "13" (uuid 05c98ebb-7c02-414b-9552-6387c3e1dc64))
    (pin "14" (uuid 15004898-2c78-476c-a5a4-353c124d1aa6))
    (pin "15" (uuid 9f23fe16-4b53-445a-b97a-b97d72e9bb95))
    (pin "16" (uuid d8752dad-21a3-4399-b482-0f824d74b337))
    (pin "17" (uuid 342b2816-f44a-4676-8366-0ea54fe7887f))
    (pin "18" (uuid 337a0c8f-0087-44ae-8fee-fe58cbf30a55))
    (pin "19" (uuid f429fef7-139a-41b4-8401-abfb7b172abc))
    (pin "2" (uuid 802ef899-44cc-444f-b667-dd31a7139ad3))
    (pin "20" (uuid 9d076594-ec6e-4b07-9541-c50fe65758d4))
    (pin "21" (uuid b85bae84-5910-4d21-b46e-7bf495e6d1d2))
    (pin "22" (uuid 2d3117b1-df1e-4cf9-9050-58e764090f3f))
    (pin "23" (uuid 8e0d7849-582a-4546-8c32-a10acff16e33))
    (pin "24" (uuid 58e59de0-a328-45bd-bec3-f30d216a04e8))
    (pin "25" (uuid 18421841-1f9d-48d0-bfb7-2f5303cc9699))
    (pin "26" (uuid acf925c4-9859-40de-834a-7b522f328426))
    (pin "27" (uuid 44e92899-7c6a-497b-9379-56fd84331a4b))
    (pin "28" (uuid 19500f62-bba4-4038-903d-a4b2394c669f))
    (pin "29" (uuid 81269470-568f-4b29-b6d0-c7361e4656ed))
    (pin "3" (uuid 8e229d32-f0fe-477a-a2c4-f3ffd9e81984))
    (pin "30" (uuid 9d5a2a62-89f8-4571-864c-879c27027b24))
    (pin "31" (uuid 69f9a4c9-2fcf-45a9-8c69-11add927aa1e))
    (pin "32" (uuid ed75afe8-3b03-4739-9bce-1f4713b25459))
    (pin "33" (uuid 7a9ad63f-6cd7-43d3-8433-7f157ff57ad5))
    (pin "34" (uuid c9c02901-e7b3-49a8-8e99-b40c2f4f1271))
    (pin "35" (uuid 6774e810-e21d-411a-b756-73e46abbe09f))
    (pin "36" (uuid c1d2d92a-f4e6-4631-bd41-fdcb65265426))
    (pin "37" (uuid d91618c6-9589-456a-9c51-26defdb7154f))
    (pin "38" (uuid 2f33b777-8b82-47ed-9261-3a395768a903))
    (pin "4" (uuid 9e5a52da-823e-45c2-8825-9f3b18433b85))
    (pin "5" (uuid b7af8880-3569-4952-97c3-6a181ea5be0a))
    (pin "6" (uuid 7715124d-14ed-42f1-97e1-23a46745a109))
    (pin "7" (uuid 1da6719a-2a2d-4f43-8116-3edff1c292aa))
    (pin "8" (uuid 84701773-4f52-472e-a424-03fc34d26210))
    (pin "9" (uuid d30b4179-90a6-4fb6-af7d-29abd3c66b5f))
  )

  (symbol (lib_id "Device:R") (at 77.47 77.47 0) (mirror y) (unit 1)
    (in_bom yes) (on_board yes) (fields_autoplaced)
    (uuid ed487bed-dc60-4043-b798-6c3c91f06c0d)
    (property "Reference" "R3" (id 0) (at 80.01 76.1999 0)
      (effects (font (size 1.27 1.27)) (justify right))
    )
    (property "Value" "1k" (id 1) (at 80.01 78.7399 0)
      (effects (font (size 1.27 1.27)) (justify right))
    )
    (property "Footprint" "Resistor_THT:R_Axial_DIN0207_L6.3mm_D2.5mm_P7.62mm_Horizontal" (id 2) (at 79.248 77.47 90)
      (effects (font (size 1.27 1.27)) hide)
    )
    (property "Datasheet" "~" (id 3) (at 77.47 77.47 0)
      (effects (font (size 1.27 1.27)) hide)
    )
    (pin "1" (uuid 76fa0b06-daa1-4360-8756-6f00bb89ffae))
    (pin "2" (uuid caacd0d4-1eeb-4301-8e94-5da9637d767d))
  )

  (symbol (lib_id "Regulator_Linear:LM317_TO-220") (at 45.72 71.12 0) (unit 1)
    (in_bom yes) (on_board yes) (fields_autoplaced)
    (uuid f94400d3-7d10-42c3-ab67-cfbbe519e36b)
    (property "Reference" "U1" (id 0) (at 45.72 63.5 0))
    (property "Value" "LM317_TO-220" (id 1) (at 45.72 66.04 0))
    (property "Footprint" "Package_TO_SOT_THT:TO-220-3_Vertical" (id 2) (at 45.72 64.77 0)
      (effects (font (size 1.27 1.27) italic) hide)
    )
    (property "Datasheet" "http://www.ti.com/lit/ds/symlink/lm317.pdf" (id 3) (at 45.72 71.12 0)
      (effects (font (size 1.27 1.27)) hide)
    )
    (pin "1" (uuid 2d3641ac-d15f-42d4-9b61-20c31df3b858))
    (pin "2" (uuid b7bd9777-db6f-45bd-b053-70d6fc433085))
    (pin "3" (uuid 1f2a1905-1a58-478b-b322-4e2aedde57b1))
  )

  (symbol (lib_id "Connector_Generic:Conn_01x02") (at 86.36 85.09 0) (unit 1)
    (in_bom yes) (on_board yes) (fields_autoplaced)
    (uuid fc3f4cac-a2cd-441f-bdec-a8dc45d3969a)
    (property "Reference" "J6" (id 0) (at 88.9 85.0899 0)
      (effects (font (size 1.27 1.27)) (justify left))
    )
    (property "Value" "Led ON" (id 1) (at 88.9 87.6299 0)
      (effects (font (size 1.27 1.27)) (justify left))
    )
    (property "Footprint" "Connector_PinSocket_2.54mm:PinSocket_1x02_P2.54mm_Vertical" (id 2) (at 86.36 85.09 0)
      (effects (font (size 1.27 1.27)) hide)
    )
    (property "Datasheet" "~" (id 3) (at 86.36 85.09 0)
      (effects (font (size 1.27 1.27)) hide)
    )
    (pin "1" (uuid 9ffb12bc-d997-4618-9157-308729ff348c))
    (pin "2" (uuid 45c8f558-f406-4ad1-a069-01872bcb46c2))
  )

  (sheet_instances
    (path "/" (page "1"))
  )

  (symbol_instances
    (path "/cb3cec83-1131-442a-94b6-80f57c516663"
      (reference "#PWR01") (unit 1) (value "GND") (footprint "")
    )
    (path "/7b5d46a6-0a22-4765-9e51-247200bee96a"
      (reference "#PWR02") (unit 1) (value "VDD") (footprint "")
    )
    (path "/16497b9e-5e3d-497c-9d9f-388019d9fc95"
      (reference "#PWR03") (unit 1) (value "VDD") (footprint "")
    )
    (path "/9865484c-f31b-4dd0-8090-4c912fbc8ec4"
      (reference "#PWR04") (unit 1) (value "GND") (footprint "")
    )
    (path "/cad53f5c-26f1-4884-8ad8-5b811ff38956"
      (reference "C1") (unit 1) (value "1uF") (footprint "Capacitor_THT:CP_Radial_D5.0mm_P2.50mm")
    )
    (path "/5583bdaf-387f-4b47-a8b9-c2b11309fa0d"
      (reference "J1") (unit 1) (value "Input Voltage") (footprint "TerminalBlock:TerminalBlock_Altech_AK300-2_P5.00mm")
    )
    (path "/6152e45a-0c4a-4712-9ce4-df5f4aea2ec0"
      (reference "J2") (unit 1) (value "Front Ultrasonic Sensor") (footprint "Connector_PinSocket_2.54mm:PinSocket_1x04_P2.54mm_Vertical")
    )
    (path "/b13ac196-1051-46d9-9b4e-4578dfee2e83"
      (reference "J3") (unit 1) (value "Rear Ultrasonic Sensor") (footprint "Connector_PinSocket_2.54mm:PinSocket_1x04_P2.54mm_Vertical")
    )
    (path "/07ba2bcd-0c52-4c75-a7ea-785c10af07a9"
      (reference "J4") (unit 1) (value "Servomotor") (footprint "Connector_PinSocket_2.54mm:PinSocket_1x03_P2.54mm_Vertical")
    )
    (path "/05758b46-4014-4f01-9086-3eeef509eefc"
      (reference "J5") (unit 1) (value "H-Bridge Control") (footprint "Connector_PinSocket_2.54mm:PinSocket_1x03_P2.54mm_Vertical")
    )
    (path "/fc3f4cac-a2cd-441f-bdec-a8dc45d3969a"
      (reference "J6") (unit 1) (value "Led ON") (footprint "Connector_PinSocket_2.54mm:PinSocket_1x02_P2.54mm_Vertical")
    )
    (path "/59fb5153-efd1-4fbe-9b6e-2e0b01c858ad"
      (reference "R1") (unit 1) (value "3k9") (footprint "Resistor_THT:R_Axial_DIN0207_L6.3mm_D2.5mm_P7.62mm_Horizontal")
    )
    (path "/a405bc43-9a7a-4e19-b75c-74eaf906407d"
      (reference "R2") (unit 1) (value "2k7") (footprint "Resistor_THT:R_Axial_DIN0207_L6.3mm_D2.5mm_P7.62mm_Horizontal")
    )
    (path "/ed487bed-dc60-4043-b798-6c3c91f06c0d"
      (reference "R3") (unit 1) (value "1k") (footprint "Resistor_THT:R_Axial_DIN0207_L6.3mm_D2.5mm_P7.62mm_Horizontal")
    )
    (path "/f94400d3-7d10-42c3-ab67-cfbbe519e36b"
      (reference "U1") (unit 1) (value "LM317_TO-220") (footprint "Package_TO_SOT_THT:TO-220-3_Vertical")
    )
    (path "/e9bc947d-86fe-43e2-8b93-71946e6954e7"
      (reference "U2") (unit 1) (value "ESP32-NodeMCU") (footprint "ESP32_NODEMCU:esp32-nodemcu")
    )
    (path "/747fda74-39e5-4c78-bdc6-8343f3868973"
      (reference "U3") (unit 1) (value "Logic Converter") (footprint "CONV_BOB-12009")
    )
  )
)
